[
    {
        "header": {
            "event_id": "2",
            "event_name": "moka.item.added",
            "timestamp": "2021-01-01T02:02:02Z",
            "outlet_id": "G123456",
            "version": 1
        },
        "body": {
            "item": {
                "id": "1",
                "name": "tembakau",
                "description": "tembakau asli indonesia",
                "date": "2022-01-01T01:10:02Z"
            }
        }
    },
    {
        "header": {
            "event_id": "2",
            "event_name": "moka.item.added",
            "timestamp": "2021-01-01T02:02:02Z",
            "outlet_id": "G123456",
            "version": 1
        },
        "body": {
            "item": {
                "id": "2",
                "name": "tembakau",
                "description": "tembakau asli indonesia",
                "date": "2022-01-01T01:10:02Z"
            }
        }
    },
    {
        "header": {
            "event_id": "2",
            "event_name": "moka.item.added",
            "timestamp": "2021-01-01T02:02:02Z",
            "outlet_id": "G123456",
            "version": 1
        },
        "body": {
            "item": {
                "id": "3",
                "name": "tembakau",
                "description": "tembakau asli indonesia",
                "date": "2022-01-01T01:10:02Z"
            }
        }
    },
    {
        "header": {
            "event_id": "2",
            "event_name": "moka.item.added",
            "timestamp": "2021-01-01T02:02:02Z",
            "outlet_id": "G123456",
            "version": 1
        },
        "body": {
            "item": {
                "id": "4",
                "name": "tembakau",
                "description": "tembakau asli indonesia",
                "date": "2022-01-01T01:10:02Z"
            }
        }
    }
]